<svg width="56" height="56" viewBox="0 0 56 56" fill="none" xmlns="http://www.w3.org/2000/svg">
<g clip-path="url(#clip0)">
<path fill-rule="evenodd" clip-rule="evenodd" d="M55.4482 0.143752C55.107 -0.0509356 54.6875 -0.0476543 54.3495 0.152283L34.3061 12.0046C33.7861 12.312 33.6138 12.9827 33.9213 13.5027C34.2286 14.0226 34.8993 14.1948 35.4194 13.8875L49.8003 5.38369L23.0136 33.1773L9.69089 29.1013L27.0777 18.8201C27.5977 18.5125 27.7699 17.8418 27.4625 17.3219C27.1551 16.802 26.4843 16.6295 25.9644 16.9371L6.44322 28.4804C6.07025 28.701 5.86254 29.1209 5.91384 29.5513C5.96514 29.9817 6.26559 30.3411 6.6799 30.4679L22.5906 35.3355L29.6099 48.1119C29.6173 48.1251 29.6248 48.1363 29.6326 48.1462C29.7497 48.3416 29.9253 48.5012 30.1442 48.5933C30.2813 48.6509 30.4253 48.679 30.5684 48.679C30.8487 48.679 31.1247 48.5712 31.333 48.3674L39.4043 40.4793L54.5862 45.124C54.6912 45.156 54.7989 45.1719 54.9061 45.1719C55.1375 45.1719 55.3661 45.0984 55.5567 44.9574C55.8355 44.7511 56 44.4249 56 44.0782V1.09378C56 0.701017 55.7893 0.33833 55.4482 0.143752ZM29.6696 36.0096C29.5429 36.1925 29.475 36.4098 29.475 36.6323V43.3229L24.6818 34.5986L45.892 12.5913L29.6696 36.0096ZM31.6625 44.9869V38.1109L37.0208 39.7502L31.6625 44.9869ZM53.8125 42.5997L32.3204 36.0245L53.8125 4.99891V42.5997ZM17.9837 38.0161C17.5565 37.589 16.8642 37.589 16.4368 38.0161L6.22646 48.2265C5.79935 48.6536 5.79935 49.3462 6.22646 49.7734C6.44018 49.9869 6.72007 50.0937 6.99996 50.0937C7.27985 50.0937 7.55974 49.9869 7.77335 49.7733L17.9837 39.5629C18.4108 39.1359 18.4108 38.4434 17.9837 38.0161ZM2.83596 51.6171C3.26318 51.1901 3.95552 51.1901 4.38274 51.617C4.80985 52.0442 4.80985 52.7368 4.38274 53.1639L1.86711 55.6795C1.6535 55.893 1.37361 55.9999 1.09372 55.9999C0.813832 55.9999 0.533941 55.8931 0.320332 55.6796C-0.106777 55.2524 -0.106777 54.5599 0.320332 54.1328L2.83596 51.6171ZM15.6023 54.0685C15.3989 53.8651 15.1168 53.748 14.8291 53.748C14.5402 53.748 14.2593 53.8651 14.0558 54.0685C13.8524 54.272 13.7354 54.553 13.7354 54.8418C13.7354 55.1295 13.8523 55.4116 14.0558 55.6151C14.2593 55.8185 14.5414 55.9355 14.8291 55.9355C15.1168 55.9355 15.3989 55.8185 15.6023 55.6151C15.8057 55.4116 15.9229 55.1295 15.9229 54.8418C15.9229 54.553 15.8058 54.272 15.6023 54.0685ZM22.1932 45.9302C22.6208 45.5031 23.3131 45.5031 23.74 45.9302C24.1671 46.3573 24.1671 47.0499 23.74 47.477L18.3318 52.885C18.1182 53.0985 17.8383 53.2054 17.5584 53.2054C17.2786 53.2054 16.9987 53.0986 16.7851 52.885C16.3579 52.4579 16.3579 51.7654 16.7851 51.3382L22.1932 45.9302ZM42.4051 45.5151C41.9779 45.0881 41.2856 45.0881 40.8584 45.5151L35.4356 50.9379C35.0085 51.365 35.0085 52.0575 35.4356 52.4848C35.6492 52.6983 35.9291 52.8051 36.209 52.8051C36.4888 52.8051 36.7687 52.6983 36.9823 52.4848L42.4051 47.062C42.8323 46.6349 42.8323 45.9423 42.4051 45.5151ZM30.2346 14.5884C30.5223 14.5884 30.8045 14.7054 31.0079 14.9088C31.2113 15.1123 31.3284 15.3945 31.3284 15.6832C31.3284 15.9709 31.2112 16.252 31.0079 16.4554C30.8045 16.6599 30.5223 16.7759 30.2346 16.7759C29.947 16.7759 29.6648 16.6599 29.4613 16.4554C29.2579 16.252 29.1409 15.9709 29.1409 15.6832C29.1409 15.3945 29.258 15.1123 29.4613 14.9088C29.6648 14.7054 29.947 14.5884 30.2346 14.5884Z" fill="#486581"/>
</g>
<defs>
<clipPath id="clip0">
<rect width="56" height="56" fill="white"/>
</clipPath>
</defs>
</svg>
